{
  "alternativePensionSavingRates": {
    "0": 160.82802747088363,
    "1": 168.66096607093476,
    "2": 177.02685314578707,
    "3": 185.97778709042308,
    "4": 195.57284541792197,
    "5": 205.87929486226912,
    "6": 216.9740623445948,
    "7": 228.94553485434938,
    "8": 241.89577737093086,
    "9": 255.94328666285784,
    "10": 271.22643835528294
  },
  "buPensionCapitalRetirement": 80832.5328479388,
  "capitalGap": 113640.34096472105,
  "capitalStock": 194472.87381265985,
  "consultation": {
    "chronology": {
      "calendarType": "iso8601",
      "class": "java.time.chrono.IsoChronology",
      "id": "ISO"
    },
    "class": "java.time.LocalDate",
    "dayOfMonth": 1,
    "dayOfWeek": "WEDNESDAY",
    "dayOfYear": 60,
    "era": "CE",
    "leapYear": false,
    "month": "MARCH",
    "monthValue": 3,
    "year": 2017
  },
  "depotCapitalRetirement": 0,
  "householdBalance": -675,
  "interimBalance": -446,
  "lastCalculated": {
    "chronology": {
      "calendarType": "iso8601",
      "class": "java.time.chrono.IsoChronology",
      "id": "ISO"
    },
    "class": "java.time.LocalDate",
    "dayOfMonth": 24,
    "dayOfWeek": "FRIDAY",
    "dayOfYear": 83,
    "era": "CE",
    "leapYear": false,
    "month": "MARCH",
    "monthValue": 3,
    "year": 2017
  },
  "lifestyleTodaySum": 650,
  "lifestyleTomorrowWithInflation": [
    500,
    300
  ],
  "lifestyleTomorrowWithInflationSum": 800,
  "monthsToRetirement": 406,
  "objectiveCapitalSum": 1500,
  "objectiveSavingRateSum": 68,
  "objectiveSavingRates": [
    {}
  ],
  "overallIncome": 500,
  "pensionCapitalRetirement": 0,
  "pensionSavingRate": 161,
  "pensionSavingRateLater": null,
  "retirement": {
    "chronology": {
      "calendarType": "iso8601",
      "class": "java.time.chrono.IsoChronology",
      "id": "ISO"
    },
    "class": "java.time.LocalDate",
    "dayOfMonth": 1,
    "dayOfWeek": "SUNDAY",
    "dayOfYear": 1,
    "era": "CE",
    "leapYear": false,
    "month": "JANUARY",
    "monthValue": 1,
    "year": 2051
  },
  "securitySum": 296
}