{
	"annualInflation": 0,
	"birthday": "1984-08-17",
	"overallIncome": 600,
	"lifestyleToday": 800,
	"lifestyleTomorrow": [
		{
			"name": "Wohnen",
			"value": 500,
			"assignment": "DEFAULT"
		}, {
			"name": "Lebenshaltung",
			"value": 300,
			"assignment": "DEFAULT"
		}
	],
	"objectives": [
		{
			"name": "Auto",
			"investmentCapital": 20000,
			"targetDate": "2020-01-01"
		}, {
			"name": "Haus",
			"investmentCapital": 100000,
			"targetDate": "2025-01-01"
		}, {
			"name": "Boot",
			"investmentCapital": 45000,
			"targetDate": "2030-01-01"
		}
	],
	"securitySum": 800,
	"capital": {
		"BUFFER": {
			"grossAssets": 5000,
			"annualPvt": "PVT_0"
		},
		"DEPOT": {
			"grossAssets": 10000,
			"annualPvt": "PVT_UP_TO_10"
		},
		"PENSION": {
			"grossAssets": 20000,
			"annualPvt": "PVT_UP_TO_24"
		}
	}
}