{
	"startoption": false,
	"consultation": null,
	"annualInflation": 1.4,
	"birthday": "1997-02-27",
	"retirement": null,
	"overallIncome": null,
	"lifestyleToday": null,
	"lifestyleTomorrow": null,
	"objectives": null,
	"securitySum": null,
	"buInsurance": null,
	"capital": null
}