{
    "alternativePensionSavingRates": {
        "0": 0,
        "1": 0,
        "2": 0,
        "3": 0,
        "4": 0,
        "5": 0,
        "6": 0,
        "7": 0,
        "8": 0,
        "9": 0,
        "10": 0
    },
    "buPensionCapitalRetirement": 0,
    "capitalGap": 0,
    "capitalStock": 0,
    "consultation": "2019-03-01",
    "depotCapitalRetirement": 0,
    "householdBalance": 0,
    "interimBalance": 0,
    "lastCalculated": "2019-03-11",
    "lifestyleTodaySum": null,
    "lifestyleTomorrowWithInflation": [],
    "lifestyleTomorrowWithInflationSum": 0,
    "monthsToRetirement": 538,
    "objectiveCapitalSum": 0,
    "objectiveSavingRateSum": 0,
    "objectiveSavingRates": [],
    "overallIncome": null,
    "pensionCapitalRetirement": 0,
    "pensionSavingRate": 0,
    "pensionSavingRateLater": null,
    "retirement": "2064-01-01",
    "securitySum": null,
    "startoption": "NO_REDUCTION"
}